[
    {
        "key": "group_5bb4bcef2dde9",
        "title": "Post Options",
        "fields": [
            {
                "key": "field_5bb4bd949f4c6",
                "label": "Related Posts",
                "name": "single_element_related",
                "type": "button_group",
                "instructions": "",
                "required": 0,
                "conditional_logic": 0,
                "wrapper": {
                    "width": "",
                    "class": "",
                    "id": ""
                },
                "choices": {
                    "default": "Default",
                    "false": "Off",
                    "true": "On"
                },
                "allow_null": 0,
                "default_value": "",
                "layout": "horizontal",
                "return_format": "value"
            },
            {
                "key": "field_5bb4be939f4c7",
                "label": "Related Filter By",
                "name": "single_related_choose",
                "type": "select",
                "instructions": "",
                "required": 0,
                "conditional_logic": [
                    [
                        {
                            "field": "field_5bb4bd949f4c6",
                            "operator": "==",
                            "value": "true"
                        }
                    ]
                ],
                "wrapper": {
                    "width": "",
                    "class": "",
                    "id": ""
                },
                "choices": {
                    "manually": "Manually",
                    "categories": "Categories",
                    "tags": "Tags"
                },
                "default_value": [],
                "allow_null": 0,
                "multiple": 0,
                "ui": 0,
                "return_format": "value",
                "ajax": 0,
                "placeholder": ""
            },
            {
                "key": "field_5bb4bf4b9f4c9",
                "label": "Select Categories",
                "name": "single_related_categories",
                "type": "taxonomy",
                "instructions": "",
                "required": 0,
                "conditional_logic": [
                    [
                        {
                            "field": "field_5bb4be939f4c7",
                            "operator": "==",
                            "value": "categories"
                        }
                    ]
                ],
                "wrapper": {
                    "width": "",
                    "class": "",
                    "id": ""
                },
                "taxonomy": "category",
                "field_type": "multi_select",
                "allow_null": 0,
                "add_term": 1,
                "save_terms": 0,
                "load_terms": 0,
                "return_format": "id",
                "multiple": 0
            },
            {
                "key": "field_5bb4bfaf9f4ca",
                "label": "Select Tags",
                "name": "single_related_tags",
                "type": "taxonomy",
                "instructions": "",
                "required": 0,
                "conditional_logic": [
                    [
                        {
                            "field": "field_5bb4be939f4c7",
                            "operator": "==",
                            "value": "tags"
                        }
                    ]
                ],
                "wrapper": {
                    "width": "",
                    "class": "",
                    "id": ""
                },
                "taxonomy": "post_tag",
                "field_type": "multi_select",
                "allow_null": 0,
                "add_term": 1,
                "save_terms": 0,
                "load_terms": 0,
                "return_format": "id",
                "multiple": 0
            },
            {
                "key": "field_5bb4bfd39f4cb",
                "label": "Select Manully",
                "name": "single_related_manually",
                "type": "post_object",
                "instructions": "",
                "required": 0,
                "conditional_logic": [
                    [
                        {
                            "field": "field_5bb4be939f4c7",
                            "operator": "==",
                            "value": "manually"
                        }
                    ]
                ],
                "wrapper": {
                    "width": "",
                    "class": "",
                    "id": ""
                },
                "post_type": [
                    "post"
                ],
                "taxonomy": "",
                "allow_null": 0,
                "multiple": 0,
                "return_format": "id",
                "ui": 1
            },
            {
                "key": "field_5bb4bf129f4c8",
                "label": "Related Length",
                "name": "posts_per_page",
                "type": "number",
                "instructions": "",
                "required": 0,
                "conditional_logic": [
                    [
                        {
                            "field": "field_5bb4bd949f4c6",
                            "operator": "==",
                            "value": "true"
                        }
                    ]
                ],
                "wrapper": {
                    "width": "",
                    "class": "",
                    "id": ""
                },
                "default_value": "",
                "placeholder": "",
                "prepend": "",
                "append": "",
                "min": "",
                "max": "",
                "step": ""
            },
            {
                "key": "field_5bb4c0259f4cc",
                "label": "Offset",
                "name": "offset",
                "type": "number",
                "instructions": "Use this setting to skip over posts (e.g. '2' to skip over 2 posts).",
                "required": 0,
                "conditional_logic": [
                    [
                        {
                            "field": "field_5bb4bd949f4c6",
                            "operator": "==",
                            "value": "true"
                        }
                    ]
                ],
                "wrapper": {
                    "width": "",
                    "class": "",
                    "id": ""
                },
                "default_value": "",
                "placeholder": "",
                "prepend": "",
                "append": "",
                "min": "",
                "max": "",
                "step": ""
            }
        ],
        "location": [
            [
                {
                    "param": "post_type",
                    "operator": "==",
                    "value": "post"
                }
            ]
        ],
        "menu_order": 0,
        "position": "normal",
        "style": "default",
        "label_placement": "left",
        "instruction_placement": "label",
        "hide_on_screen": "",
        "active": 1,
        "description": ""
    },
    {
        "key": "group_5bb224cc4e793",
        "title": "Theme Panel",
        "fields": [
            {
                "key": "field_5bd819f59bf3d",
                "label": "Google Analytic",
                "name": "google_analytic",
                "type": "text",
                "instructions": "Add your Google Analytic ID. Remove id if you use another method or plugin",
                "required": 0,
                "conditional_logic": 0,
                "wrapper": {
                    "width": "",
                    "class": "",
                    "id": ""
                },
                "default_value": "",
                "placeholder": "",
                "prepend": "",
                "append": "",
                "maxlength": ""
            },
            {
                "key": "field_5bd819a29bf3c",
                "label": "Facebook Pixels",
                "name": "facebook_pixel",
                "type": "text",
                "instructions": "Add your Facebook Pixel ID. Remove id if you use another method or plugin",
                "required": 0,
                "conditional_logic": 0,
                "wrapper": {
                    "width": "",
                    "class": "",
                    "id": ""
                },
                "default_value": "",
                "placeholder": "",
                "prepend": "",
                "append": "",
                "maxlength": ""
            }
        ],
        "location": [
            [
                {
                    "param": "options_page",
                    "operator": "==",
                    "value": "theme-options"
                }
            ]
        ],
        "menu_order": 0,
        "position": "normal",
        "style": "default",
        "label_placement": "top",
        "instruction_placement": "label",
        "hide_on_screen": "",
        "active": 1,
        "description": ""
    },
    {
        "key": "group_5bb21d11a58d6",
        "title": "User",
        "fields": [
            {
                "key": "field_5bb21dc461606",
                "label": "Profile Picture",
                "name": "avatar",
                "type": "image",
                "instructions": "",
                "required": 0,
                "conditional_logic": 0,
                "wrapper": {
                    "width": "",
                    "class": "",
                    "id": ""
                },
                "return_format": "id",
                "preview_size": "thumbnail",
                "library": "all",
                "min_width": 160,
                "min_height": 160,
                "min_size": "",
                "max_width": "",
                "max_height": "",
                "max_size": "",
                "mime_types": ""
            },
            {
                "key": "field_5bb21e020f8ce",
                "label": "Background",
                "name": "background",
                "type": "image",
                "instructions": "Set background fro user box",
                "required": 0,
                "conditional_logic": 0,
                "wrapper": {
                    "width": "",
                    "class": "",
                    "id": ""
                },
                "return_format": "url",
                "preview_size": "thumbnail",
                "library": "all",
                "min_width": "",
                "min_height": "",
                "min_size": "",
                "max_width": "",
                "max_height": "",
                "max_size": "",
                "mime_types": ""
            },
            {
                "key": "field_5bb4468844db0",
                "label": "Job Position",
                "name": "job",
                "type": "text",
                "instructions": "",
                "required": 0,
                "conditional_logic": 0,
                "wrapper": {
                    "width": "",
                    "class": "",
                    "id": ""
                },
                "default_value": "Web Designer",
                "placeholder": "",
                "prepend": "",
                "append": "",
                "maxlength": ""
            },
            {
                "key": "field_5bb21d317d97f",
                "label": "Phone",
                "name": "phone",
                "type": "number",
                "instructions": "Insert phone number",
                "required": 0,
                "conditional_logic": 0,
                "wrapper": {
                    "width": "",
                    "class": "",
                    "id": ""
                },
                "default_value": "",
                "placeholder": "085xxxxxxx",
                "prepend": "",
                "append": "",
                "min": "",
                "max": "",
                "step": ""
            },
            {
                "key": "field_5bb446d344db1",
                "label": "Youtube Url",
                "name": "youtube",
                "type": "text",
                "instructions": "",
                "required": 0,
                "conditional_logic": 0,
                "wrapper": {
                    "width": "",
                    "class": "",
                    "id": ""
                },
                "default_value": "#",
                "placeholder": "",
                "prepend": "",
                "append": "",
                "maxlength": ""
            },
            {
                "key": "field_5bb4470b44db2",
                "label": "Facebook Url",
                "name": "facebook",
                "type": "text",
                "instructions": "",
                "required": 0,
                "conditional_logic": 0,
                "wrapper": {
                    "width": "",
                    "class": "",
                    "id": ""
                },
                "default_value": "#",
                "placeholder": "",
                "prepend": "",
                "append": "",
                "maxlength": ""
            },
            {
                "key": "field_5bb4471d44db3",
                "label": "Instagram Url",
                "name": "instagram",
                "type": "text",
                "instructions": "",
                "required": 0,
                "conditional_logic": 0,
                "wrapper": {
                    "width": "",
                    "class": "",
                    "id": ""
                },
                "default_value": "#",
                "placeholder": "",
                "prepend": "",
                "append": "",
                "maxlength": ""
            },
            {
                "key": "field_5bb4472c44db4",
                "label": "Twitter Url",
                "name": "twitter",
                "type": "text",
                "instructions": "",
                "required": 0,
                "conditional_logic": 0,
                "wrapper": {
                    "width": "",
                    "class": "",
                    "id": ""
                },
                "default_value": "#",
                "placeholder": "",
                "prepend": "",
                "append": "",
                "maxlength": ""
            },
            {
                "key": "field_5bb4473644db5",
                "label": "Linked In url",
                "name": "linkedin",
                "type": "text",
                "instructions": "",
                "required": 0,
                "conditional_logic": 0,
                "wrapper": {
                    "width": "",
                    "class": "",
                    "id": ""
                },
                "default_value": "#",
                "placeholder": "",
                "prepend": "",
                "append": "",
                "maxlength": ""
            }
        ],
        "location": [
            [
                {
                    "param": "user_form",
                    "operator": "==",
                    "value": "all"
                }
            ]
        ],
        "menu_order": 0,
        "position": "acf_after_title",
        "style": "default",
        "label_placement": "left",
        "instruction_placement": "label",
        "hide_on_screen": "",
        "active": 1,
        "description": ""
    },
    {
        "key": "group_5bb4757397d4d",
        "title": "Widget Author",
        "fields": [
            {
                "key": "field_5bb475d0bf3f2",
                "label": "Username",
                "name": "user_id",
                "type": "user",
                "instructions": "",
                "required": 0,
                "conditional_logic": 0,
                "wrapper": {
                    "width": "",
                    "class": "",
                    "id": ""
                },
                "role": "",
                "allow_null": 0,
                "multiple": 0,
                "return_format": "id"
            },
            {
                "key": "field_5bb4757dbf3f1",
                "label": "Display Name",
                "name": "display_name",
                "type": "select",
                "instructions": "",
                "required": 0,
                "conditional_logic": 0,
                "wrapper": {
                    "width": "",
                    "class": "",
                    "id": ""
                },
                "choices": {
                    "username": "Username",
                    "fullname": "Fullname"
                },
                "default_value": [],
                "allow_null": 0,
                "multiple": 0,
                "ui": 0,
                "return_format": "value",
                "ajax": 0,
                "placeholder": ""
            }
        ],
        "location": [
            [
                {
                    "param": "widget",
                    "operator": "==",
                    "value": "retheme_widget_author"
                }
            ]
        ],
        "menu_order": 0,
        "position": "normal",
        "style": "default",
        "label_placement": "top",
        "instruction_placement": "label",
        "hide_on_screen": "",
        "active": 1,
        "description": ""
    },
    {
        "key": "group_5bb588efea46f",
        "title": "Widget Contact Info",
        "fields": [
            {
                "key": "field_5bb588f99d1c0",
                "label": "Title",
                "name": "title",
                "type": "text",
                "instructions": "",
                "required": 0,
                "conditional_logic": 0,
                "wrapper": {
                    "width": "",
                    "class": "",
                    "id": ""
                },
                "default_value": "",
                "placeholder": "",
                "prepend": "",
                "append": "",
                "maxlength": ""
            },
            {
                "key": "field_5bb589109d1c1",
                "label": "Logo",
                "name": "logo",
                "type": "image",
                "instructions": "Adds a person’s name.",
                "required": 0,
                "conditional_logic": 0,
                "wrapper": {
                    "width": "",
                    "class": "",
                    "id": ""
                },
                "return_format": "id",
                "preview_size": "thumbnail",
                "library": "all",
                "min_width": "",
                "min_height": "",
                "min_size": "",
                "max_width": "",
                "max_height": "",
                "max_size": "",
                "mime_types": ""
            },
            {
                "key": "field_5c5183d7ab562",
                "label": "Description",
                "name": "description",
                "type": "textarea",
                "instructions": "",
                "required": 0,
                "conditional_logic": 0,
                "wrapper": {
                    "width": "",
                    "class": "",
                    "id": ""
                },
                "default_value": "",
                "placeholder": "",
                "maxlength": "",
                "rows": "",
                "new_lines": ""
            },
            {
                "key": "field_5bb5891d9d1c2",
                "label": "Company",
                "name": "company",
                "type": "text",
                "instructions": "",
                "required": 0,
                "conditional_logic": 0,
                "wrapper": {
                    "width": "",
                    "class": "",
                    "id": ""
                },
                "default_value": "WordPress",
                "placeholder": "",
                "prepend": "",
                "append": "",
                "maxlength": ""
            },
            {
                "key": "field_5bb589219d1c3",
                "label": "Address",
                "name": "address",
                "type": "text",
                "instructions": "Adds an address. You can use HTML to separate the address lines.",
                "required": 0,
                "conditional_logic": 0,
                "wrapper": {
                    "width": "",
                    "class": "",
                    "id": ""
                },
                "default_value": "31A Gajah Mada Street, Kediri, Indonesia",
                "placeholder": "",
                "prepend": "",
                "append": "",
                "maxlength": ""
            },
            {
                "key": "field_5bb589379d1c4",
                "label": "Phone",
                "name": "phone",
                "type": "text",
                "instructions": "",
                "required": 0,
                "conditional_logic": 0,
                "wrapper": {
                    "width": "",
                    "class": "",
                    "id": ""
                },
                "default_value": 155510001,
                "placeholder": "",
                "prepend": "",
                "append": "",
                "maxlength": ""
            },
            {
                "key": "field_5bb589509d1c5",
                "label": "Email",
                "name": "email",
                "type": "email",
                "instructions": "",
                "required": 0,
                "conditional_logic": 0,
                "wrapper": {
                    "width": "",
                    "class": "",
                    "id": ""
                },
                "default_value": "example@email.com",
                "placeholder": "",
                "prepend": "",
                "append": ""
            },
            {
                "key": "field_5bb5895f9d1c6",
                "label": "Website",
                "name": "website",
                "type": "text",
                "instructions": "",
                "required": 0,
                "conditional_logic": 0,
                "wrapper": {
                    "width": "",
                    "class": "",
                    "id": ""
                },
                "default_value": "",
                "maxlength": "",
                "placeholder": "",
                "prepend": "",
                "append": ""
            }
        ],
        "location": [
            [
                {
                    "param": "widget",
                    "operator": "==",
                    "value": "retheme_widget_company"
                }
            ]
        ],
        "menu_order": 0,
        "position": "normal",
        "style": "default",
        "label_placement": "top",
        "instruction_placement": "label",
        "hide_on_screen": "",
        "active": 1,
        "description": ""
    },
    {
        "key": "group_5bb4741b5db26",
        "title": "Widget Post Tabs",
        "fields": [
            {
                "key": "field_5bb47431eda68",
                "label": "Popular",
                "name": "popular",
                "type": "true_false",
                "instructions": "",
                "required": 0,
                "conditional_logic": 0,
                "wrapper": {
                    "width": "",
                    "class": "",
                    "id": ""
                },
                "message": "",
                "default_value": 1,
                "ui": 1,
                "ui_on_text": "",
                "ui_off_text": ""
            },
            {
                "key": "field_5bb474b1eda69",
                "label": "Most Comment",
                "name": "most_comment",
                "type": "true_false",
                "instructions": "",
                "required": 0,
                "conditional_logic": 0,
                "wrapper": {
                    "width": "",
                    "class": "",
                    "id": ""
                },
                "message": "",
                "default_value": 1,
                "ui": 1,
                "ui_on_text": "",
                "ui_off_text": ""
            },
            {
                "key": "field_5bb474c2eda6a",
                "label": "Lastest Post",
                "name": "lastest",
                "type": "true_false",
                "instructions": "",
                "required": 0,
                "conditional_logic": 0,
                "wrapper": {
                    "width": "",
                    "class": "",
                    "id": ""
                },
                "message": "",
                "default_value": 1,
                "ui": 1,
                "ui_on_text": "",
                "ui_off_text": ""
            },
            {
                "key": "field_5bb474deeda6b",
                "label": "Posts Per Page",
                "name": "posts_per_page",
                "type": "number",
                "instructions": "",
                "required": 0,
                "conditional_logic": 0,
                "wrapper": {
                    "width": "",
                    "class": "",
                    "id": ""
                },
                "default_value": 5,
                "placeholder": "",
                "prepend": "",
                "append": "",
                "min": 1,
                "max": "",
                "step": ""
            }
        ],
        "location": [
            [
                {
                    "param": "widget",
                    "operator": "==",
                    "value": "retheme_widget_post_tabs"
                }
            ]
        ],
        "menu_order": 0,
        "position": "normal",
        "style": "default",
        "label_placement": "top",
        "instruction_placement": "label",
        "hide_on_screen": "",
        "active": 1,
        "description": ""
    },
    {
        "key": "group_5bb47111ad477",
        "title": "Widget Posts",
        "fields": [
            {
                "key": "field_5bb47121bcd26",
                "label": "Title",
                "name": "title",
                "type": "text",
                "instructions": "",
                "required": 0,
                "conditional_logic": 0,
                "wrapper": {
                    "width": "",
                    "class": "",
                    "id": ""
                },
                "default_value": "",
                "placeholder": "",
                "prepend": "",
                "append": "",
                "maxlength": ""
            },
            {
                "key": "field_5bb47155bcd28",
                "label": "Filter by",
                "name": "query_by",
                "type": "select",
                "instructions": "",
                "required": 0,
                "conditional_logic": 0,
                "wrapper": {
                    "width": "",
                    "class": "",
                    "id": ""
                },
                "choices": {
                    "lastest": "Lastest Posts",
                    "category": "Category",
                    "post_tag": "Tag",
                    "manually": "Manually"
                },
                "default_value": [
                    "lastest"
                ],
                "allow_null": 0,
                "multiple": 0,
                "ui": 0,
                "return_format": "value",
                "ajax": 0,
                "placeholder": ""
            },
            {
                "key": "field_5bb471d4bcd29",
                "label": "Category",
                "name": "category",
                "type": "taxonomy",
                "instructions": "",
                "required": 0,
                "conditional_logic": [
                    [
                        {
                            "field": "field_5bb47155bcd28",
                            "operator": "==",
                            "value": "category"
                        }
                    ]
                ],
                "wrapper": {
                    "width": "",
                    "class": "",
                    "id": ""
                },
                "taxonomy": "category",
                "field_type": "multi_select",
                "allow_null": 0,
                "add_term": 1,
                "save_terms": 0,
                "load_terms": 0,
                "return_format": "id",
                "multiple": 0
            },
            {
                "key": "field_5bb4721ebcd2b",
                "label": "Tags",
                "name": "tags",
                "type": "taxonomy",
                "instructions": "",
                "required": 0,
                "conditional_logic": [
                    [
                        {
                            "field": "field_5bb47155bcd28",
                            "operator": "==",
                            "value": "post_tag"
                        }
                    ]
                ],
                "wrapper": {
                    "width": "",
                    "class": "",
                    "id": ""
                },
                "taxonomy": "post_tag",
                "field_type": "multi_select",
                "allow_null": 0,
                "add_term": 1,
                "save_terms": 0,
                "load_terms": 0,
                "return_format": "id",
                "multiple": 0
            },
            {
                "key": "field_5bb4e487a3382",
                "label": "Manually",
                "name": "manually",
                "type": "post_object",
                "instructions": "",
                "required": 0,
                "conditional_logic": [
                    [
                        {
                            "field": "field_5bb47155bcd28",
                            "operator": "==",
                            "value": "manually"
                        }
                    ]
                ],
                "wrapper": {
                    "width": "",
                    "class": "",
                    "id": ""
                },
                "post_type": [
                    "post"
                ],
                "taxonomy": "",
                "allow_null": 0,
                "multiple": 1,
                "return_format": "id",
                "ui": 1
            },
            {
                "key": "field_5bb47142bcd27",
                "label": "Post Per Page",
                "name": "posts_per_page",
                "type": "number",
                "instructions": "",
                "required": 1,
                "conditional_logic": 0,
                "wrapper": {
                    "width": "",
                    "class": "",
                    "id": ""
                },
                "default_value": 5,
                "placeholder": "",
                "prepend": "",
                "append": "",
                "min": "",
                "max": "",
                "step": ""
            },
            {
                "key": "field_5bb5915164291",
                "label": "Offset",
                "name": "offset",
                "type": "number",
                "instructions": "",
                "required": 0,
                "conditional_logic": 0,
                "wrapper": {
                    "width": "",
                    "class": "",
                    "id": ""
                },
                "default_value": "",
                "placeholder": "",
                "prepend": "",
                "append": "",
                "min": "",
                "max": "",
                "step": ""
            },
            {
                "key": "field_5bb47250bcd2c",
                "label": "Order By",
                "name": "order_by",
                "type": "select",
                "instructions": "",
                "required": 0,
                "conditional_logic": 0,
                "wrapper": {
                    "width": "",
                    "class": "",
                    "id": ""
                },
                "choices": {
                    "ID": "Post Id",
                    "author": "Post Author",
                    "title": "Title",
                    "date": "Date",
                    "modified": "Last Modified Date",
                    "parent": "Parent Id",
                    "rand": "Random",
                    "comment_count": "Comment Count",
                    "menu_order": "Menu Order",
                    "wp_post_views_count": "Most Viewer"
                },
                "default_value": [
                    "ID"
                ],
                "allow_null": 0,
                "multiple": 0,
                "ui": 0,
                "return_format": "value",
                "ajax": 0,
                "placeholder": ""
            }
        ],
        "location": [
            [
                {
                    "param": "widget",
                    "operator": "==",
                    "value": "retheme_widget_posts"
                }
            ]
        ],
        "menu_order": 0,
        "position": "normal",
        "style": "default",
        "label_placement": "top",
        "instruction_placement": "label",
        "hide_on_screen": "",
        "active": 1,
        "description": ""
    },
    {
        "key": "group_5bb57fabd90c3",
        "title": "Widget Social Link",
        "fields": [
            {
                "key": "field_5bb57fb68fc05",
                "label": "Title",
                "name": "title",
                "type": "text",
                "instructions": "",
                "required": 0,
                "conditional_logic": 0,
                "wrapper": {
                    "width": "",
                    "class": "",
                    "id": ""
                },
                "default_value": "",
                "placeholder": "",
                "prepend": "",
                "append": "",
                "maxlength": ""
            },
            {
                "key": "field_5bb5801c8fc07",
                "label": "Style",
                "name": "style",
                "type": "select",
                "instructions": "",
                "required": 0,
                "conditional_logic": 0,
                "wrapper": {
                    "width": "",
                    "class": "",
                    "id": ""
                },
                "choices": {
                    "brand": "Brand Color",
                    "gray": "Gray",
                    "border": "Border",
                    "custom": "Custom"
                },
                "default_value": [
                    "brand"
                ],
                "allow_null": 0,
                "multiple": 0,
                "ui": 0,
                "return_format": "value",
                "ajax": 0,
                "placeholder": ""
            },
            {
                "key": "field_5bb580348fc08",
                "label": "Alignment",
                "name": "align",
                "type": "button_group",
                "instructions": "",
                "required": 0,
                "conditional_logic": 0,
                "wrapper": {
                    "width": "",
                    "class": "",
                    "id": ""
                },
                "choices": {
                    "left": "Left",
                    "center": "Center",
                    "right": "Right"
                },
                "allow_null": 0,
                "default_value": "",
                "layout": "horizontal",
                "return_format": "value"
            }
        ],
        "location": [
            [
                {
                    "param": "widget",
                    "operator": "==",
                    "value": "retheme_widget_sosmed"
                }
            ]
        ],
        "menu_order": 0,
        "position": "normal",
        "style": "default",
        "label_placement": "top",
        "instruction_placement": "label",
        "hide_on_screen": "",
        "active": 1,
        "description": ""
    },
    {
        "key": "group_5c3ea1b9ba345",
        "title": "Slider Options",
        "fields": [
            {
                "key": "field_5c3ea266e30cb",
                "label": "Item",
                "name": "slider_item",
                "type": "repeater",
                "instructions": "",
                "required": 0,
                "conditional_logic": 0,
                "wrapper": {
                    "width": "",
                    "class": "",
                    "id": ""
                },
                "collapsed": "field_5c3eaa2fff566",
                "min": 0,
                "max": 0,
                "layout": "row",
                "button_label": "",
                "sub_fields": [
                    {
                        "key": "field_5c3eaa2fff566",
                        "label": "Image",
                        "name": "image",
                        "type": "image",
                        "instructions": "",
                        "required": 0,
                        "conditional_logic": 0,
                        "wrapper": {
                            "width": "",
                            "class": "",
                            "id": ""
                        },
                        "return_format": "id",
                        "preview_size": "thumbnail",
                        "library": "all",
                        "min_width": "",
                        "min_height": "",
                        "min_size": "",
                        "max_width": "",
                        "max_height": "",
                        "max_size": "",
                        "mime_types": ""
                    },
                    {
                        "key": "field_5c3eaa4dff567",
                        "label": "Title",
                        "name": "title",
                        "type": "text",
                        "instructions": "",
                        "required": 0,
                        "conditional_logic": 0,
                        "wrapper": {
                            "width": "",
                            "class": "",
                            "id": ""
                        },
                        "default_value": "",
                        "placeholder": "",
                        "prepend": "",
                        "append": "",
                        "maxlength": ""
                    },
                    {
                        "key": "field_5c3eaa62ff568",
                        "label": "Link",
                        "name": "link",
                        "type": "link",
                        "instructions": "",
                        "required": 0,
                        "conditional_logic": 0,
                        "wrapper": {
                            "width": "",
                            "class": "",
                            "id": ""
                        },
                        "return_format": "array"
                    }
                ]
            }
        ],
        "location": [
            [
                {
                    "param": "post_type",
                    "operator": "==",
                    "value": "post"
                }
            ]
        ],
        "menu_order": 2,
        "position": "normal",
        "style": "default",
        "label_placement": "top",
        "instruction_placement": "label",
        "hide_on_screen": "",
        "active": 1,
        "description": ""
    },
    {
        "key": "group_5bb46bfa2f948",
        "title": "Advanced Options",
        "fields": [
            {
                "key": "field_5bb46c1210ade",
                "label": "General",
                "name": "",
                "type": "tab",
                "instructions": "",
                "required": 0,
                "conditional_logic": 0,
                "wrapper": {
                    "width": "",
                    "class": "",
                    "id": ""
                },
                "placement": "top",
                "endpoint": 0
            },
            {
                "key": "field_5bb46c5d10adf",
                "label": "Header Overlay",
                "name": "header_overlay",
                "type": "true_false",
                "instructions": "",
                "required": 0,
                "conditional_logic": 0,
                "wrapper": {
                    "width": "",
                    "class": "",
                    "id": ""
                },
                "message": "",
                "default_value": 0,
                "ui": 1,
                "ui_on_text": "",
                "ui_off_text": ""
            },
            {
                "key": "field_5bb46e237ea19",
                "label": "Sidebar",
                "name": "",
                "type": "tab",
                "instructions": "",
                "required": 0,
                "conditional_logic": 0,
                "wrapper": {
                    "width": "",
                    "class": "",
                    "id": ""
                },
                "placement": "top",
                "endpoint": 0
            },
            {
                "key": "field_5bb46dac7ea18",
                "label": "Sidebar Position",
                "name": "sidebar_layout",
                "type": "button_group",
                "instructions": "",
                "required": 0,
                "conditional_logic": 0,
                "wrapper": {
                    "width": "",
                    "class": "",
                    "id": ""
                },
                "choices": {
                    "default": "Default",
                    "none": "No Sidebar",
                    "left": "Left",
                    "right": "Right"
                },
                "allow_null": 0,
                "default_value": "",
                "layout": "horizontal",
                "return_format": "value"
            },
            {
                "key": "field_5bf9494d05916",
                "label": "Facebook Pixel",
                "name": "",
                "type": "tab",
                "instructions": "",
                "required": 0,
                "conditional_logic": 0,
                "wrapper": {
                    "width": "",
                    "class": "",
                    "id": ""
                },
                "placement": "top",
                "endpoint": 0
            },
            {
                "key": "field_5bf94876569a2",
                "label": "Pixel Event",
                "name": "pixel_event",
                "type": "select",
                "instructions": "",
                "required": 0,
                "conditional_logic": 0,
                "wrapper": {
                    "width": "",
                    "class": "",
                    "id": ""
                },
                "choices": {
                    "ViewContent": "View Content",
                    "AddPaymentInfo": "Add Payment Info",
                    "AddToCart": "Add To Cart",
                    "AddToWishlist": "Add To Wish list",
                    "CompleteRegistration": "Complete Registration",
                    "Contact": "Contact",
                    "CustomizeProduct": "Customize Product",
                    "Donate": "Donate",
                    "FindLocation": "Find Location",
                    "Initiate Checkout": "Initiate Checkout",
                    "Lead": "Lead",
                    "PageView": "Page View",
                    "Purchase": "Purchase",
                    "Schedule": "Schedule",
                    "Search": "Search",
                    "StartTrial": "Start Trial",
                    "SubmitApplication": "Submit Application",
                    "Subscribe": "Subscribe"
                },
                "default_value": [
                    "ViewContent"
                ],
                "allow_null": 0,
                "multiple": 0,
                "ui": 0,
                "return_format": "value",
                "ajax": 0,
                "placeholder": ""
            }
        ],
        "location": [
            [
                {
                    "param": "post_type",
                    "operator": "==",
                    "value": "post"
                }
            ],
            [
                {
                    "param": "post_type",
                    "operator": "==",
                    "value": "page"
                }
            ]
        ],
        "menu_order": 99,
        "position": "normal",
        "style": "default",
        "label_placement": "left",
        "instruction_placement": "label",
        "hide_on_screen": "",
        "active": 1,
        "description": ""
    }
]